module gitlab.com/sylva-projects/sylva-elements/sylvactl

go 1.22.2

require (
	github.com/fluxcd/flux2/v2 v2.2.3
	github.com/fluxcd/helm-controller/api v0.37.4
	github.com/fluxcd/kustomize-controller/api v1.2.2
	github.com/fluxcd/pkg/apis/meta v1.3.0
	github.com/fluxcd/pkg/ssa v0.36.0
	github.com/fluxcd/source-controller/api v1.2.4
	github.com/go-logr/logr v1.4.1
	github.com/mattn/go-colorable v0.1.13
	github.com/pkg/errors v0.9.1
	github.com/spf13/cobra v1.8.0
	golang.org/x/sync v0.7.0
	golang.org/x/term v0.19.0
	k8s.io/api v0.30.0
	k8s.io/apiextensions-apiserver v0.30.0
	k8s.io/apimachinery v0.30.0
	k8s.io/cli-runtime v0.30.0
	k8s.io/client-go v0.30.0
	sigs.k8s.io/cli-utils v0.35.0
	sigs.k8s.io/controller-runtime v0.18.1
)

require (
	github.com/Azure/go-ansiterm v0.0.0-20230124172434-306776ec8161 // indirect
	github.com/cyphar/filepath-securejoin v0.2.4 // indirect
	github.com/davecgh/go-spew v1.1.1 // indirect
	github.com/emicklei/go-restful/v3 v3.11.2 // indirect
	github.com/evanphx/json-patch v5.8.1+incompatible // indirect
	github.com/evanphx/json-patch/v5 v5.9.0 // indirect
	github.com/fluxcd/cli-utils v0.36.0-flux.3 // indirect
	github.com/fluxcd/pkg/apis/acl v0.1.0 // indirect
	github.com/fluxcd/pkg/apis/kustomize v1.3.0 // indirect
	github.com/go-errors/errors v1.5.1 // indirect
	github.com/go-openapi/jsonpointer v0.20.2 // indirect
	github.com/go-openapi/jsonreference v0.20.4 // indirect
	github.com/go-openapi/swag v0.22.8 // indirect
	github.com/gogo/protobuf v1.3.2 // indirect
	github.com/golang/protobuf v1.5.4 // indirect
	github.com/google/btree v1.1.2 // indirect
	github.com/google/gnostic-models v0.6.8 // indirect
	github.com/google/go-cmp v0.6.0 // indirect
	github.com/google/gofuzz v1.2.0 // indirect
	github.com/google/shlex v0.0.0-20191202100458-e7afc7fbc510 // indirect
	github.com/google/uuid v1.6.0 // indirect
	github.com/gorilla/websocket v1.5.1 // indirect
	github.com/gregjones/httpcache v0.0.0-20190611155906-901d90724c79 // indirect
	github.com/imdario/mergo v0.3.16 // indirect
	github.com/inconshreveable/mousetrap v1.1.0 // indirect
	github.com/josharian/intern v1.0.0 // indirect
	github.com/json-iterator/go v1.1.12 // indirect
	github.com/liggitt/tabwriter v0.0.0-20181228230101-89fcab3d43de // indirect
	github.com/mailru/easyjson v0.7.7 // indirect
	github.com/mattn/go-isatty v0.0.20 // indirect
	github.com/moby/term v0.5.0 // indirect
	github.com/modern-go/concurrent v0.0.0-20180306012644-bacd9c7ef1dd // indirect
	github.com/modern-go/reflect2 v1.0.2 // indirect
	github.com/monochromegane/go-gitignore v0.0.0-20200626010858-205db1a8cc00 // indirect
	github.com/munnerz/goautoneg v0.0.0-20191010083416-a7dc8b61c822 // indirect
	github.com/peterbourgon/diskv v2.0.1+incompatible // indirect
	github.com/spf13/pflag v1.0.5 // indirect
	github.com/stretchr/testify v1.9.0 // indirect
	github.com/xlab/treeprint v1.2.0 // indirect
	go.starlark.net v0.0.0-20240123142251-f86470692795 // indirect
	golang.org/x/exp v0.0.0-20240119083558-1b970713d09a // indirect
	golang.org/x/net v0.23.0 // indirect
	golang.org/x/oauth2 v0.16.0 // indirect
	golang.org/x/sys v0.19.0 // indirect
	golang.org/x/text v0.14.0 // indirect
	golang.org/x/time v0.5.0 // indirect
	google.golang.org/appengine v1.6.8 // indirect
	google.golang.org/protobuf v1.33.0 // indirect
	gopkg.in/evanphx/json-patch.v5 v5.8.1 // indirect
	gopkg.in/inf.v0 v0.9.1 // indirect
	gopkg.in/yaml.v2 v2.4.0 // indirect
	gopkg.in/yaml.v3 v3.0.1 // indirect
	k8s.io/klog/v2 v2.120.1 // indirect
	k8s.io/kube-openapi v0.0.0-20240228011516-70dd3763d340 // indirect
	k8s.io/kubectl v0.29.1 // indirect
	k8s.io/utils v0.0.0-20240102154912-e7106e64919e // indirect
	sigs.k8s.io/json v0.0.0-20221116044647-bc3834ca7abd // indirect
	sigs.k8s.io/kustomize/api v0.16.0 // indirect
	sigs.k8s.io/kustomize/kyaml v0.16.0 // indirect
	sigs.k8s.io/structured-merge-diff/v4 v4.4.1 // indirect
	sigs.k8s.io/yaml v1.4.0 // indirect
)
